{
  "blink.cmp": { "branch": "main", "commit": "18b352d12b35bca148427b607098df14b75a218f" },
  "ccc.nvim": { "branch": "main", "commit": "b57cbaf8db3ac43c56c9e2c7f3812944638260ed" },
  "friendly-snippets": { "branch": "main", "commit": "efff286dd74c22f731cdec26a70b46e5b203c619" },
  "lazy.nvim": { "branch": "main", "commit": "a8c6db5da7bd382094606340eed015d14fbb5654" },
  "lazydev.nvim": { "branch": "main", "commit": "2367a6c0a01eb9edb0464731cc0fb61ed9ab9d2c" },
  "mason-lspconfig.nvim": { "branch": "main", "commit": "1a31f824b9cd5bc6f342fc29e9a53b60d74af245" },
  "mason.nvim": { "branch": "main", "commit": "fc98833b6da5de5a9c5b1446ac541577059555be" },
  "mini.icons": { "branch": "main", "commit": "ec61af6e606fc89ee3b1d8f2f20166a3ca917a36" },
  "mini.move": { "branch": "main", "commit": "c8b30e92dd2668dd6e56a9a23cb7d4ee38c2266d" },
  "mini.statusline": { "branch": "main", "commit": "83209bfbca156f9e4a5ec47a2a8ce1e5ce26311d" },
  "modes.nvim": { "branch": "main", "commit": "1e34663c32e8f5d915921a938e0dc4e3e788ceb8" },
  "nvim-surround": { "branch": "main", "commit": "ae298105122c87bbe0a36b1ad20b06d417c0433e" },
  "nvim-treesitter": { "branch": "master", "commit": "f0ff9f0e5dab10123d3192b12556aa8f88859790" },
  "nvim-treesitter-context": { "branch": "master", "commit": "198720b4016af04c9590f375d714d5bf8afecc1a" },
  "nvim-treesitter-textobjects": { "branch": "master", "commit": "ad8f0a472148c3e0ae9851e26a722ee4e29b1595" },
  "nvim-ts-autotag": { "branch": "main", "commit": "a1d526af391f6aebb25a8795cbc05351ed3620b5" },
  "oil.nvim": { "branch": "master", "commit": "975a77cce3c8cb742bc1b3629f4328f5ca977dad" },
  "plenary.nvim": { "branch": "master", "commit": "857c5ac632080dba10aae49dba902ce3abf91b35" },
  "snacks.nvim": { "branch": "main", "commit": "4ce197bff9cb9b78a0bdcebb6f7ebbf22cd48c6a" },
  "todo-comments.nvim": { "branch": "main", "commit": "304a8d204ee787d2544d8bc23cd38d2f929e7cc5" },
  "tokyonight.nvim": { "branch": "main", "commit": "057ef5d260c1931f1dffd0f052c685dcd14100a3" },
  "treesj": { "branch": "main", "commit": "48c1a7539f376fd40ceb9cf12d697040fcf90649" },
  "trouble.nvim": { "branch": "main", "commit": "85bedb7eb7fa331a2ccbecb9202d8abba64d37b3" },
  "ultimate-autopair.nvim": { "branch": "v0.6", "commit": "b24b97c538b71b6de0ce9d84e47df27b6ecafd76" },
  "which-key.nvim": { "branch": "main", "commit": "370ec46f710e058c9c1646273e6b225acf47cbed" }
}
